{
    "Categories": "Qt;KDE;X-KDE-information;",
    "KPlugin": {
        "BugReportUrl": "https://bugs.kde.org/enter_bug.cgi?product=kinfocenter&component=general",
        "Description": "Information about the Wayland Compositor",
        "Description[ar]": "معلومات مراكب ويلاند",
        "Description[az]": "Wayland qrafik sistemi haqqında məlumat",
        "Description[bg]": "Информация за Wayland ",
        "Description[ca@valencia]": "Informació quant al compositor Wayland",
        "Description[ca]": "Informació quant al compositor Wayland",
        "Description[cs]": "Informace o kompozitoru Wayland",
        "Description[de]": "Informationen über den Wayland-Compositor",
        "Description[en_GB]": "Information about the Wayland Compositor",
        "Description[eo]": "Informoj pri la Wayland-Kompositoro",
        "Description[es]": "Información sobre el compositor de Wayland",
        "Description[et]": "Teave Waylandi komposiitori kohta",
        "Description[eu]": "Wayland konposatzaileari buruzko informazioa",
        "Description[fi]": "Wayland-koostimen tiedot",
        "Description[fr]": "Informations concernant le compositeur « Wayland »",
        "Description[gl]": "Información sobre o compositor Wayland.",
        "Description[he]": "מידע על המנהל החלונאי Wayland",
        "Description[hu]": "A Wayland kompozitor jellemzői",
        "Description[ia]": "Information re le compositor de Wayland",
        "Description[id]": "Informasi tentang Kompositor Wayland",
        "Description[is]": "Upplýsingar um Wayland-myndsmið",
        "Description[it]": "Informazioni sul compositore Wayland.",
        "Description[ja]": "Wayland コンポジタに関する情報",
        "Description[ka]": "ინფორმაცია Wayland კომპოზიტორის შესახებ",
        "Description[ko]": "Wayland 컴포지터 정보",
        "Description[lt]": "Informacija apie Wayland kompozitorių",
        "Description[nl]": "Informatie over de Wayland Compositor",
        "Description[nn]": "Informasjon om Wayland-samansetjaren",
        "Description[pa]": "ਵੇਲੈਂਡ ਕੰਪੋਸਿਟਰ ਦੇ ਬਾਰੇ ਜਾਣਕਾਰੀ",
        "Description[pl]": "Szczegóły o kompozytorze Wayland",
        "Description[pt]": "Informação sobre o compositor Wayland",
        "Description[pt_BR]": "Informações sobre o compositor do Wayland",
        "Description[ro]": "Informații despre compozitorul Wayland",
        "Description[ru]": "Сведения о графическом сервере Wayland",
        "Description[sk]": "Informácia o Wayland kompozítori",
        "Description[sl]": "Podatki o upravljalniku skladnje Wayland",
        "Description[sv]": "Information om Wayland-sammansättning",
        "Description[tr]": "Wayland Bileşikleştiricisi Bilgisi",
        "Description[uk]": "Відомості щодо засобу композиції Wayland",
        "Description[vi]": "Thông tin về Trình kết hợp Wayland",
        "Description[x-test]": "xxInformation about the Wayland Compositorxx",
        "Description[zh_CN]": "关于 Wayland 显示特效合成器的信息。",
        "Description[zh_TW]": "關於 Wayland 合成器的資訊",
        "Icon": "wayland",
        "Name": "Wayland",
        "Name[ar]": "ويلاند",
        "Name[ast]": "Wayland",
        "Name[az]": "Wayland",
        "Name[bg]": "Wayland",
        "Name[bs]": "Wayland",
        "Name[ca@valencia]": "Wayland",
        "Name[ca]": "Wayland",
        "Name[cs]": "Wayland",
        "Name[da]": "Wayland",
        "Name[de]": "Wayland",
        "Name[el]": "Wayland",
        "Name[en_GB]": "Wayland",
        "Name[eo]": "Wayland",
        "Name[es]": "Wayland",
        "Name[et]": "Wayland",
        "Name[eu]": "Wayland",
        "Name[fi]": "Wayland",
        "Name[fr]": "Wayland",
        "Name[gl]": "Wayland",
        "Name[he]": "Wayland",
        "Name[hu]": "Wayland",
        "Name[ia]": "Wayland",
        "Name[id]": "Wayland",
        "Name[is]": "Wayland",
        "Name[it]": "Wayland",
        "Name[ja]": "Wayland",
        "Name[ka]": "Wayland",
        "Name[ko]": "Wayland",
        "Name[lt]": "Wayland",
        "Name[nb]": "Wayland",
        "Name[nds]": "Wayland",
        "Name[nl]": "Wayland",
        "Name[nn]": "Wayland",
        "Name[pa]": "ਵੇਲੈਂਡ",
        "Name[pl]": "Wayland",
        "Name[pt]": "Wayland",
        "Name[pt_BR]": "Wayland",
        "Name[ro]": "Wayland",
        "Name[ru]": "Wayland",
        "Name[sk]": "Wayland",
        "Name[sl]": "Wayland",
        "Name[sr@ijekavian]": "Вејланд",
        "Name[sr@ijekavianlatin]": "Wayland",
        "Name[sr@latin]": "Wayland",
        "Name[sr]": "Вејланд",
        "Name[sv]": "Wayland",
        "Name[tr]": "Wayland",
        "Name[uk]": "Wayland",
        "Name[vi]": "Wayland",
        "Name[x-test]": "xxWaylandxx",
        "Name[zh_CN]": "Wayland",
        "Name[zh_TW]": "Wayland"
    },
    "TryExec": "wayland-info",
    "X-KDE-KInfoCenter-Category": "graphical_information",
    "X-KDE-Keywords": "Wayland,Compositor,Display,System Information",
    "X-KDE-Keywords[ar]": "ويلاند,مراكب,عرض,معلومات النّظام",
    "X-KDE-Keywords[ast]": "Wayland,Compositor,Pantalla,Información del sistema",
    "X-KDE-Keywords[az]": "Wayland,Compositor,Display,System Information,qrafik server,kompozit",
    "X-KDE-Keywords[bs]": "Wayland,Compositor,Display,System Information,Prikaz,Sistemske informacije",
    "X-KDE-Keywords[ca@valencia]": "Wayland,Compositor,Pantalla,Informació del sistema",
    "X-KDE-Keywords[ca]": "Wayland,Compositor,Pantalla,Informació del sistema",
    "X-KDE-Keywords[cs]": "Wayland,Kompozitor,Zobrazení,Informace o systému",
    "X-KDE-Keywords[da]": "Wayland,Compositor,Display,System Information",
    "X-KDE-Keywords[de]": "Wayland,Compositor,Anzeige,Systeminformationen",
    "X-KDE-Keywords[el]": "Wayland,Compositor,Συνθέτης,Απεικόνιση,Προβολή,Πληροφορίες συστήματος",
    "X-KDE-Keywords[en_GB]": "Wayland,Compositor,Display,System Information",
    "X-KDE-Keywords[es]": "Wayland,Compositor,Pantalla,Información sobre el sistema",
    "X-KDE-Keywords[et]": "Wayland,komposiitor,kuva,ekraan,süsteemi teave",
    "X-KDE-Keywords[eu]": "Wayland,Konposatzailea,Bistaratzea,Sistemaren Informazioa",
    "X-KDE-Keywords[fi]": "Wayland,Compositor,Display,System Information,koostin,näyttö,järjestelmätiedot",
    "X-KDE-Keywords[fr]": "Wayland, Compositeur, Affichage, Informations système",
    "X-KDE-Keywords[gl]": "Wayland,Compositor,Display,Pantalla,Información do sistema",
    "X-KDE-Keywords[hu]": "Wayland,Kompozitor,Kijelző,Rendszer-információ",
    "X-KDE-Keywords[ia]": "Wayland, Compositor, Monstrator, Information de systema",
    "X-KDE-Keywords[id]": "Wayland,Kompositor,Tampilan,Informasi Sistem",
    "X-KDE-Keywords[it]": "Wayland,Compositore,Schermo,Informazioni di sistema",
    "X-KDE-Keywords[ko]": "Wayland,Compositor,Display,System Information,컴포지터,디스플레이,시스템 정보",
    "X-KDE-Keywords[lt]": "Wayland,Kompozitorius,Ekranas,Sistemos informacija,Informacija apie sistemą,Informacija apie sistema",
    "X-KDE-Keywords[nb]": "Wayland, Sammensetter,Skjerm,Systeminformasjon",
    "X-KDE-Keywords[nds]": "Wayland,Tosamensetten,Dorstellen,Systeem-Informatschonen",
    "X-KDE-Keywords[nl]": "Wayland,Compositor,Scherm,Systeeminformatie",
    "X-KDE-Keywords[nn]": "Wayland,samansetjar,skjerm,systeminformasjon",
    "X-KDE-Keywords[pa]": "ਵੇਲੈਂਡ,ਕੰਪੋਸਿਟਰ,ਡਿਸਪਲੇਅ,ਸਿਸਟਮ ਜਾਣਕਾਰੀ",
    "X-KDE-Keywords[pl]": "Wayland,Kompozytor,Wyświetlacz,Informacje systemowe",
    "X-KDE-Keywords[pt]": "Wayland,Compositor,Ecrã,Informação do Sistema",
    "X-KDE-Keywords[pt_BR]": "Wayland,Compositor,Tela,Informações do sistema",
    "X-KDE-Keywords[ro]": "wayland,compozitor,afișaj,informații sistem",
    "X-KDE-Keywords[ru]": "Wayland,Compositor,Display,System Information,Графический сервер,Композитор",
    "X-KDE-Keywords[sk]": "Wayland,skladateľ,obrazovka,systémové informácie",
    "X-KDE-Keywords[sl]": "Wayland,upravljalnik skladnje,prikaz,sistemske podrobnosti",
    "X-KDE-Keywords[sr@ijekavian]": "Wayland,Compositor,Display,System Information,вејланд,слагач,приказ,системске информације",
    "X-KDE-Keywords[sr@ijekavianlatin]": "Wayland,Compositor,Display,System Information,Wayland,slagač,prikaz,sistemske informacije",
    "X-KDE-Keywords[sr@latin]": "Wayland,Compositor,Display,System Information,Wayland,slagač,prikaz,sistemske informacije",
    "X-KDE-Keywords[sr]": "Wayland,Compositor,Display,System Information,вејланд,слагач,приказ,системске информације",
    "X-KDE-Keywords[sv]": "Wayland,Sammansättning,Bildskärm,Systeminformation",
    "X-KDE-Keywords[tr]": "Wayland,Dizgici,Görüntü,Sistem Bilgileri",
    "X-KDE-Keywords[uk]": "Wayland,Compositor,Display,System Information,композиція,засіб,дисплей,монітор,відомості щодо системи",
    "X-KDE-Keywords[vi]": "Wayland,Compositor,Display,System Information,Trình kết hợp,Hiển thị,Thông tin hệ thống",
    "X-KDE-Keywords[x-test]": "xxWaylandxx,xxCompositorxx,xxDisplayxx,xxSystem Informationxx",
    "X-KDE-Keywords[zh_CN]": "Wayland,Compositor,Display,System Information,显示特效混合器,特效,混合器,显示,显示器,系统信息",
    "X-KDE-Keywords[zh_TW]": "Wayland,Compositor,Display,System Information",
    "X-KDE-OnlyShowOnQtPlatforms": [
        "wayland"
    ]
}
